     _         _   _      _      
    / \   _ __| |_(_) ___| | ___ 
   / _ \ | '__| __| |/ __| |/ _ \
  / ___ \| |  | |_| | (__| |  __/
 /_/   \_\_|   \__|_|\___|_|\___|
                  sample1::${application.formatted-version}
